% drawdown in meters, test 1a. 1_2, 1_4, 4_4, cmt11, cmt23, cmt24, cmt32, cmt41, cmt43, cmt45
1.276320889e-01
9.456075060e-02
1.991412340e-02
1.482280000e-01 
6.197562070e-02
5.937360047e-02
4.934131317e-02
4.280403688e-03
3.816908779e-03
6.216482990e-03 